  0
SECTION
  2
HEADER
  9
$ACADVER
  1
AC1014
  9
$HANDSEED
  5
FFFF
  9
$MEASUREMENT
 70
     1
  0
ENDSEC
  0
SECTION
  2
TABLES
  0
TABLE
  2
VPORT
  5
8
330
0
100
AcDbSymbolTable
 70
     4
  0
VPORT
  5
2E
330
8
100
AcDbSymbolTableRecord
100
AcDbViewportTableRecord
  2
*ACTIVE
 70
     0
 10
0.0
 20
0.0
 11
1.0
 21
1.0
 12
210.0
 22
148.5
 13
0.0
 23
0.0
 14
10.0
 24
10.0
 15
10.0
 25
10.0
 16
0.0
 26
0.0
 36
1.0
 17
0.0
 27
0.0
 37
0.0
 40
341.0
 41
1.24
 42
50.0
 43
0.0
 44
0.0
 50
0.0
 51
0.0
 71
     0
 72
   100
 73
     1
 74
     3
 75
     0
 76
     0
 77
     0
 78
     0
  0
ENDTAB
  0
TABLE
  2
LTYPE
  5
5
330
0
100
AcDbSymbolTable
 70
     1
  0
LTYPE
  5
14
330
5
100
AcDbSymbolTableRecord
100
AcDbLinetypeTableRecord
  2
BYBLOCK
 70
     0
  3

 72
    65
 73
     0
 40
0.0
  0
LTYPE
  5
15
330
5
100
AcDbSymbolTableRecord
100
AcDbLinetypeTableRecord
  2
BYLAYER
 70
     0
  3

 72
    65
 73
     0
 40
0.0
  0
LTYPE
  5
16
330
5
100
AcDbSymbolTableRecord
100
AcDbLinetypeTableRecord
  2
CONTINUOUS
 70
     0
  3
Solid line
 72
    65
 73
     0
 40
0.0
  0
ENDTAB
  0
TABLE
  2
LAYER
  5
2
100
AcDbSymbolTable
 70
4
  0
LAYER
  5
50
100
AcDbSymbolTableRecord
100
AcDbLayerTableRecord
  2
0
 70
0
  6
CONTINUOUS
  0
LAYER
  5
51
100
AcDbSymbolTableRecord
100
AcDbLayerTableRecord
  2
Slide3
 70
0
  6
CONTINUOUS
  0
LAYER
  5
52
100
AcDbSymbolTableRecord
100
AcDbLayerTableRecord
  2
Slide2
 70
0
  6
CONTINUOUS
  0
LAYER
  5
53
100
AcDbSymbolTableRecord
100
AcDbLayerTableRecord
  2
Slide1
 70
0
  6
CONTINUOUS
  0
ENDTAB
  0
TABLE
  2
STYLE
  5
3
330
0
100
AcDbSymbolTable
 70
     1
  0
STYLE
  5
11
330
3
100
AcDbSymbolTableRecord
100
AcDbTextStyleTableRecord
  2
STANDARD
 70
     0
 40
0.0
 41
1.0
 50
0.0
 71
     0
 42
2.5
  3
txt
  4

  0
ENDTAB
  0
TABLE
  2
VIEW
  5
6
330
0
100
AcDbSymbolTable
 70
     0
  0
ENDTAB
  0
TABLE
  2
UCS
  5
7
330
0
100
AcDbSymbolTable
 70
     0
  0
ENDTAB
  0
TABLE
  2
APPID
  5
9
330
0
100
AcDbSymbolTable
 70
     2
  0
APPID
  5
12
330
9
100
AcDbSymbolTableRecord
100
AcDbRegAppTableRecord
  2
ACAD
 70
     0
  0
ENDTAB
  0
TABLE
  2
DIMSTYLE
  5
A
330
0
100
AcDbSymbolTable
 70
     1
  0
DIMSTYLE
105
27
330
A
100
AcDbSymbolTableRecord
100
AcDbDimStyleTableRecord
  2
ISO-25
 70
     0
  3

  4

  5

  6

  7

 40
1.0
 41
2.5
 42
0.625
 43
3.75
 44
1.25
 45
0.0
 46
0.0
 47
0.0
 48
0.0
140
2.5
141
2.5
142
0.0
143
0.03937007874016
144
1.0
145
0.0
146
1.0
147
0.625
 71
     0
 72
     0
 73
     0
 74
     0
 75
     0
 76
     0
 77
     1
 78
     8
170
     0
171
     3
172
     1
173
     0
174
     0
175
     0
176
     0
177
     0
178
     0
270
     2
271
     2
272
     2
273
     2
274
     3
340
11
275
     0
280
     0
281
     0
282
     0
283
     0
284
     8
285
     0
286
     0
287
     3
288
     0
  0
ENDTAB
  0
TABLE
  2
BLOCK_RECORD
  5
1
330
0
100
AcDbSymbolTable
 70
     1
  0
BLOCK_RECORD
  5
1F
330
1
100
AcDbSymbolTableRecord
100
AcDbBlockTableRecord
  2
*MODEL_SPACE
  0
BLOCK_RECORD
  5
1B
330
1
100
AcDbSymbolTableRecord
100
AcDbBlockTableRecord
  2
*PAPER_SPACE
  0
ENDTAB
  0
ENDSEC
  0
SECTION
  2
BLOCKS
  0
BLOCK
  5
20
330
1F
100
AcDbEntity
  8
0
100
AcDbBlockBegin
  2
*MODEL_SPACE
 70
     0
 10
0.0
 20
0.0
 30
0.0
  3
*MODEL_SPACE
  1

  0
ENDBLK
  5
21
330
1F
100
AcDbEntity
  8
0
100
AcDbBlockEnd
  0
BLOCK
  5
1C
330
1B
100
AcDbEntity
 67
     1
  8
0
100
AcDbBlockBegin
  2
*PAPER_SPACE
  1

  0
ENDBLK
  5
1D
330
1B
100
AcDbEntity
 67
     1
  8
0
100
AcDbBlockEnd
  0
ENDSEC
  0
SECTION
  2
ENTITIES
  0
SPLINE
  5
100
100
AcDbEntity
  8
Slide2
 62
7
100
AcDbSpline
 70
8
 71
3
 72
8
 73
4
 74
0
 40
0
 40
0
 40
0
 40
0
 40
1
 40
1
 40
1
 40
1
 10
112.500000
 20
450.000000
 30
0.0
 10
97.332666
 20
450.000000
 30
0.0
 10
83.658805
 20
440.863418
 30
0.0
 10
77.854518
 20
426.850629
 30
0.0
  0
SPLINE
  5
101
100
AcDbEntity
  8
Slide2
 62
7
100
AcDbSpline
 70
8
 71
3
 72
8
 73
4
 74
0
 40
0
 40
0
 40
0
 40
0
 40
1
 40
1
 40
1
 40
1
 10
77.854518
 20
426.850629
 30
0.0
 10
72.050230
 20
412.837839
 30
0.0
 10
75.258571
 20
396.708421
 30
0.0
 10
85.983496
 20
385.983496
 30
0.0
  0
SPLINE
  5
102
100
AcDbEntity
  8
Slide2
 62
7
100
AcDbSpline
 70
8
 71
3
 72
8
 73
4
 74
0
 40
0
 40
0
 40
0
 40
0
 40
1
 40
1
 40
1
 40
1
 10
85.983496
 20
385.983496
 30
0.0
 10
96.708421
 20
375.258571
 30
0.0
 10
112.837839
 20
372.050230
 30
0.0
 10
126.850629
 20
377.854518
 30
0.0
  0
SPLINE
  5
103
100
AcDbEntity
  8
Slide2
 62
7
100
AcDbSpline
 70
8
 71
3
 72
8
 73
4
 74
0
 40
0
 40
0
 40
0
 40
0
 40
1
 40
1
 40
1
 40
1
 10
126.850629
 20
377.854518
 30
0.0
 10
140.863418
 20
383.658805
 30
0.0
 10
150.000000
 20
397.332666
 30
0.0
 10
150.000000
 20
412.500000
 30
0.0
  0
SPLINE
  5
104
100
AcDbEntity
  8
Slide2
 62
7
100
AcDbSpline
 70
8
 71
3
 72
8
 73
4
 74
0
 40
0
 40
0
 40
0
 40
0
 40
1
 40
1
 40
1
 40
1
 10
150.000000
 20
412.500000
 30
0.0
 10
150.000000
 20
422.445618
 30
0.0
 10
146.049118
 20
431.983890
 30
0.0
 10
139.016504
 20
439.016504
 30
0.0
  0
SPLINE
  5
105
100
AcDbEntity
  8
Slide2
 62
7
100
AcDbSpline
 70
8
 71
3
 72
8
 73
4
 74
0
 40
0
 40
0
 40
0
 40
0
 40
1
 40
1
 40
1
 40
1
 10
139.016504
 20
439.016504
 30
0.0
 10
131.983890
 20
446.049118
 30
0.0
 10
122.445618
 20
450.000000
 30
0.0
 10
112.500000
 20
450.000000
 30
0.0
  0
LWPOLYLINE
  5
106
100
AcDbEntity
  8
Slide3
 62
7
100
AcDbPolyline
 90
4
 70
1
 10
488.481675
 20
484.555043
 30
0.0
 10
675.000015
 20
484.555043
 30
0.0
 10
675.000015
 20
333.431460
 30
0.0
 10
488.481675
 20
333.431460
 30
0.0
  0
SPLINE
  5
107
100
AcDbEntity
  8
Slide2
 62
1
100
AcDbSpline
 70
8
 71
3
 72
8
 73
4
 74
0
 40
0
 40
0
 40
0
 40
0
 40
1
 40
1
 40
1
 40
1
 10
300.000000
 20
450.000000
 30
0.0
 10
269.665332
 20
450.000000
 30
0.0
 10
242.317610
 20
440.863418
 30
0.0
 10
230.709035
 20
426.850629
 30
0.0
  0
SPLINE
  5
108
100
AcDbEntity
  8
Slide2
 62
1
100
AcDbSpline
 70
8
 71
3
 72
8
 73
4
 74
0
 40
0
 40
0
 40
0
 40
0
 40
1
 40
1
 40
1
 40
1
 10
230.709035
 20
426.850629
 30
0.0
 10
219.100460
 20
412.837839
 30
0.0
 10
225.517142
 20
396.708421
 30
0.0
 10
246.966991
 20
385.983496
 30
0.0
  0
SPLINE
  5
109
100
AcDbEntity
  8
Slide2
 62
1
100
AcDbSpline
 70
8
 71
3
 72
8
 73
4
 74
0
 40
0
 40
0
 40
0
 40
0
 40
1
 40
1
 40
1
 40
1
 10
246.966991
 20
385.983496
 30
0.0
 10
268.416841
 20
375.258571
 30
0.0
 10
300.675678
 20
372.050230
 30
0.0
 10
328.701257
 20
377.854518
 30
0.0
  0
SPLINE
  5
10a
100
AcDbEntity
  8
Slide2
 62
1
100
AcDbSpline
 70
8
 71
3
 72
8
 73
4
 74
0
 40
0
 40
0
 40
0
 40
0
 40
1
 40
1
 40
1
 40
1
 10
328.701257
 20
377.854518
 30
0.0
 10
356.726837
 20
383.658805
 30
0.0
 10
375.000000
 20
397.332666
 30
0.0
 10
375.000000
 20
412.500000
 30
0.0
  0
SPLINE
  5
10b
100
AcDbEntity
  8
Slide2
 62
1
100
AcDbSpline
 70
8
 71
3
 72
8
 73
4
 74
0
 40
0
 40
0
 40
0
 40
0
 40
1
 40
1
 40
1
 40
1
 10
375.000000
 20
412.500000
 30
0.0
 10
375.000000
 20
422.445618
 30
0.0
 10
367.098237
 20
431.983890
 30
0.0
 10
353.033009
 20
439.016504
 30
0.0
  0
SPLINE
  5
10c
100
AcDbEntity
  8
Slide2
 62
1
100
AcDbSpline
 70
8
 71
3
 72
8
 73
4
 74
0
 40
0
 40
0
 40
0
 40
0
 40
1
 40
1
 40
1
 40
1
 10
353.033009
 20
439.016504
 30
0.0
 10
338.967780
 20
446.049118
 30
0.0
 10
319.891237
 20
450.000000
 30
0.0
 10
300.000000
 20
450.000000
 30
0.0
  0
LWPOLYLINE
  5
10d
100
AcDbEntity
  8
Slide2
 62
7
100
AcDbPolyline
 90
1
 70
1
 10
112.500000
 20
450.000000
 30
0.0
  0
SPLINE
  5
10e
100
AcDbEntity
  8
Slide2
 62
3
100
AcDbSpline
 70
8
 71
3
 72
8
 73
4
 74
0
 40
0
 40
0
 40
0
 40
0
 40
1
 40
1
 40
1
 40
1
 10
587.314763
 20
391.632142
 30
0.0
 10
569.111537
 20
378.042706
 30
0.0
 10
535.392878
 20
371.919721
 30
0.0
 10
503.990903
 20
376.501328
 30
0.0
  0
SPLINE
  5
10f
100
AcDbEntity
  8
Slide2
 62
3
100
AcDbSpline
 70
8
 71
3
 72
8
 73
4
 74
0
 40
0
 40
0
 40
0
 40
0
 40
1
 40
1
 40
1
 40
1
 10
503.990903
 20
376.501328
 30
0.0
 10
472.588930
 20
381.082935
 30
0.0
 10
450.747983
 20
395.312169
 30
0.0
 10
450.018645
 20
411.663900
 30
0.0
  0
SPLINE
  5
110
100
AcDbEntity
  8
Slide2
 62
3
100
AcDbSpline
 70
8
 71
3
 72
8
 73
4
 74
0
 40
0
 40
0
 40
0
 40
0
 40
1
 40
1
 40
1
 40
1
 10
450.018645
 20
411.663900
 30
0.0
 10
449.289307
 20
428.015634
 30
0.0
 10
469.839842
 20
442.717568
 30
0.0
 10
500.802098
 20
447.994582
 30
0.0
  0
SPLINE
  5
111
100
AcDbEntity
  8
Slide2
 62
3
100
AcDbSpline
 70
8
 71
3
 72
8
 73
4
 74
0
 40
0
 40
0
 40
0
 40
0
 40
1
 40
1
 40
1
 40
1
 10
500.802098
 20
447.994582
 30
0.0
 10
531.764347
 20
453.271596
 30
0.0
 10
565.995413
 20
447.906301
 30
0.0
 10
585.392197
 20
434.736135
 30
0.0
  0
LWPOLYLINE
  5
112
100
AcDbEntity
  8
Slide2
 62
1
100
AcDbPolyline
 90
1
 70
1
 10
300.000000
 20
450.000000
 30
0.0
  0
LWPOLYLINE
  5
113
100
AcDbEntity
  8
Slide2
 62
3
100
AcDbPolyline
 90
3
 70
0
 10
585.392197
 20
434.736135
 30
0.0
 10
525.000000
 20
412.500000
 30
0.0
 10
587.314763
 20
391.632142
 30
0.0
  0
SPLINE
  5
114
100
AcDbEntity
  8
Slide2
 62
7
100
AcDbSpline
 70
8
 71
3
 72
8
 73
4
 74
0
 40
0
 40
0
 40
0
 40
0
 40
1
 40
1
 40
1
 40
1
 10
375.000000
 20
300.000000
 30
0.0
 10
375.000000
 20
300.000000
 30
0.0
 10
375.000000
 20
225.000000
 30
0.0
 10
450.000000
 20
225.000000
 30
0.0
  0
SPLINE
  5
115
100
AcDbEntity
  8
Slide2
 62
7
100
AcDbSpline
 70
8
 71
3
 72
8
 73
4
 74
0
 40
0
 40
0
 40
0
 40
0
 40
1
 40
1
 40
1
 40
1
 10
450.000000
 20
225.000000
 30
0.0
 10
525.000000
 20
225.000000
 30
0.0
 10
450.000000
 20
300.000000
 30
0.0
 10
525.000000
 20
300.000000
 30
0.0
  0
SPLINE
  5
116
100
AcDbEntity
  8
Slide2
 62
7
100
AcDbSpline
 70
8
 71
3
 72
8
 73
4
 74
0
 40
0
 40
0
 40
0
 40
0
 40
1
 40
1
 40
1
 40
1
 10
525.000000
 20
300.000000
 30
0.0
 10
600.000000
 20
300.000000
 30
0.0
 10
600.000000
 20
225.000000
 30
0.0
 10
600.000000
 20
225.000000
 30
0.0
  0
LWPOLYLINE
  5
117
100
AcDbEntity
  8
Slide2
 62
7
100
AcDbPolyline
 90
4
 70
0
 10
75.000000
 20
300.000000
 30
0.0
 10
150.000000
 20
225.000000
 30
0.0
 10
225.000000
 20
300.000000
 30
0.0
 10
300.000000
 20
225.000000
 30
0.0
  0
LWPOLYLINE
  5
118
100
AcDbEntity
  8
Slide2
 62
3
100
AcDbPolyline
 90
10
 70
1
 10
183.624900
 20
83.144963
 30
0.0
 10
149.620747
 20
89.245807
 30
0.0
 10
125.317537
 20
64.692660
 30
0.0
 10
120.611925
 20
98.917800
 30
0.0
 10
89.750385
 20
114.444180
 30
0.0
 10
120.846315
 20
129.495637
 30
0.0
 10
126.076042
 20
163.644615
 30
0.0
 10
150.000000
 20
138.721785
 30
0.0
 10
184.093680
 20
144.300637
 30
0.0
 10
167.783572
 20
113.846025
 30
0.0
  0
LWPOLYLINE
  5
119
100
AcDbEntity
  8
Slide2
 62
3
100
AcDbPolyline
 90
10
 70
1
 10
333.624900
 20
80.897798
 30
0.0
 10
299.620747
 20
86.998642
 30
0.0
 10
275.317537
 20
62.445495
 30
0.0
 10
270.611925
 20
96.670635
 30
0.0
 10
239.750385
 20
112.197015
 30
0.0
 10
270.846315
 20
127.248472
 30
0.0
 10
276.076042
 20
161.397450
 30
0.0
 10
300.000000
 20
136.474620
 30
0.0
 10
334.093680
 20
142.053472
 30
0.0
 10
317.783572
 20
111.598860
 30
0.0
  0
LWPOLYLINE
  5
11a
100
AcDbEntity
  8
Slide1
 62
7
100
AcDbPolyline
 90
4
 70
1
 10
75.000000
 20
600.000000
 30
0.0
 10
150.000000
 20
600.000000
 30
0.0
 10
150.000000
 20
525.000000
 30
0.0
 10
75.000000
 20
525.000000
 30
0.0
  0
LWPOLYLINE
  5
11b
100
AcDbEntity
  8
Slide1
 62
1
100
AcDbPolyline
 90
4
 70
1
 10
225.000000
 20
600.000000
 30
0.0
 10
375.000000
 20
600.000000
 30
0.0
 10
375.000000
 20
525.000000
 30
0.0
 10
225.000000
 20
525.000000
 30
0.0
  0
LWPOLYLINE
  5
11c
100
AcDbEntity
  8
Slide1
 62
3
100
AcDbPolyline
 90
4
 70
1
 10
450.000000
 20
600.000000
 30
0.0
 10
600.000000
 20
600.000000
 30
0.0
 10
600.000000
 20
525.000000
 30
0.0
 10
450.000000
 20
525.000000
 30
0.0
  0
ENDSEC
  0
SECTION
  2
OBJECTS
  0
DICTIONARY
  5
C
330
0
100
AcDbDictionary
  3
ACAD_GROUP
350
D
  3
ACAD_MLINESTYLE
350
17
  0
DICTIONARY
  5
D
330
C
100
AcDbDictionary
  0
DICTIONARY
  5
1A
330
C
100
AcDbDictionary
  0
DICTIONARY
  5
17
330
C
100
AcDbDictionary
  3
STANDARD
350
18
  0
DICTIONARY
  5
19
330
C
100
AcDbDictionary
  0
ENDSEC
  0
EOF
