<svg xmlns:dc="http://purl.org/dc/elements/1.1/" xmlns:cc="http://creativecommons.org/ns#" xmlns:rdf="http://www.w3.org/1999/02/22-rdf-syntax-ns#" xmlns:svg="http://www.w3.org/2000/svg" xmlns="http://www.w3.org/2000/svg" xmlns:sodipodi="http://sodipodi.sourceforge.net/DTD/sodipodi-0.dtd" xmlns:inkscape="http://www.inkscape.org/namespaces/inkscape" sodipodi:docname="drawing.svg" inkscape:version="1.0alpha2 (92ff5ac3e3, 2019-07-05)" id="svg8" version="1.1" viewBox="0 0 26.458333 26.458334" height="100" width="100">
  <style id="style10"/>
  <defs id="defs2"/>
  <sodipodi:namedview units="px" showgrid="false" inkscape:document-rotation="0" inkscape:current-layer="layer1" inkscape:document-units="mm" inkscape:cy="52.157704" inkscape:cx="79.023317" inkscape:zoom="3.4251159" inkscape:pageshadow="2" inkscape:pageopacity="0.0" borderopacity="1.0" bordercolor="#666666" pagecolor="#ffffff" id="base"/>
  <metadata id="metadata5">
    <rdf:RDF>
      <cc:Work rdf:about="">
        <dc:format>image/svg+xml</dc:format>
        <dc:type rdf:resource="http://purl.org/dc/dcmitype/StillImage"/>
        <dc:title/>
      </cc:Work>
    </rdf:RDF>
  </metadata>
  <g id="layer1" inkscape:groupmode="layer" inkscape:label="Layer 1">
    <path inkscape:transform-center-y="-0.52144261" inkscape:transform-center-x="-0.26217191" d="m 16.971735,20.610754 c -0.132794,0.07667 -4.277074,-3.528764 -4.429571,-3.544792 -0.152497,-0.01603 -4.9558267,2.648972 -5.0697783,2.54637 -0.1139516,-0.102603 2.0343654,-5.158187 2.0024849,-5.308173 -0.031881,-0.149987 -4.0507569,-3.894694 -3.9883891,-4.034774 0.062368,-0.140081 5.5343805,0.340829 5.6671745,0.26416 0.132794,-0.07667 2.452321,-5.0560251 2.604818,-5.039997 0.152497,0.016028 1.38607,5.368831 1.500022,5.471433 0.113951,0.102603 5.566374,0.769899 5.598255,0.919885 0.03188,0.149986 -4.677742,2.977291 -4.74011,3.117371 -0.06237,0.14008 0.987887,5.531848 0.855094,5.608517 z" inkscape:randomized="0" inkscape:rounded="0.0270277" inkscape:flatsided="false" sodipodi:arg2="1.6755161" sodipodi:arg1="1.0471976" sodipodi:r2="3.511019" sodipodi:r1="8.1251392" sodipodi:cy="13.574177" sodipodi:cx="12.909165" sodipodi:sides="5" id="a" style="vector-effect:none;fill:#edd400;stroke:#cc0000;stroke-width:1.05833;stop-color:#000000;opacity:1.0;stroke-opacity:1.0;fill-opacity:1.0" sodipodi:type="star"/>
    <path sodipodi:type="star" style="vector-effect:none;fill:#c17d11;stroke:#cc0000;stroke-width:1.05833;stop-color:#000000;opacity:1.0;stroke-opacity:1.0;fill-opacity:1.0" id="b" sodipodi:sides="5" sodipodi:cx="12.909165" sodipodi:cy="13.574177" sodipodi:r1="9.7298437" sodipodi:r2="2.7759922" sodipodi:arg1="1.06083" sodipodi:arg2="1.7243735" inkscape:flatsided="false" inkscape:rounded="0.0270277" inkscape:randomized="0" d="m 17.658768,22.066005 c -0.185921,0.09555 -4.966682,-5.723827 -5.174258,-5.748509 -0.203658,-0.02422 -6.0383155,4.542455 -6.183845,4.39794 -0.1483288,-0.147294 3.908893,-6.492354 3.868223,-6.697398 -0.0399,-0.201174 -6.1860735,-4.3390837 -6.093603,-4.522148 0.094249,-0.1865855 7.382511,1.711331 7.564951,1.609289 0.178997,-0.100116 2.215112,-7.2241564 2.417791,-7.1927817 0.206578,0.031978 0.653749,7.5500147 0.807174,7.6919937 0.15053,0.139299 7.555088,-0.12569 7.587881,0.07676 0.03342,0.20635 -6.978472,2.954836 -7.066091,3.144625 -0.08596,0.186208 2.45419,7.146475 2.271777,7.240225 z" inkscape:transform-center-x="-0.26217191" inkscape:transform-center-y="-0.52144261"/>
    <path inkscape:transform-center-y="-0.52144261" inkscape:transform-center-x="-0.26217191" d="m 20.341956,20.875699 c -0.140868,0.151109 -6.516917,-3.674987 -6.720664,-3.640854 -0.20787,0.03482 -5.1683955,5.753676 -5.3594285,5.664631 -0.187244,-0.08728 1.4812827,-7.333591 1.3858586,-7.516818 -0.097355,-0.186934 -7.0691926,-3.137453 -7.0435383,-3.346652 0.025146,-0.20505 7.4324002,-0.857421 7.5771722,-1.004795 0.147701,-0.150356 0.799394,-7.6927275 1.006282,-7.732975 0.202785,-0.039449 3.112194,6.803675 3.297092,6.89582 0.188639,0.09401 7.563245,-1.6169142 7.665455,-1.432589 0.100182,0.1806693 -5.508959,5.062323 -5.539458,5.266646 -0.03111,0.208457 3.874949,6.69342 3.731229,6.847586 z" inkscape:randomized="0" inkscape:rounded="0.0270277" inkscape:flatsided="false" sodipodi:arg2="1.3786614" sodipodi:arg1="0.77648937" sodipodi:r2="3.7292918" sodipodi:r1="10.419147" sodipodi:cy="13.574177" sodipodi:cx="12.909165" sodipodi:sides="5" id="c" style="vector-effect:none;fill:#ad7fa8;stroke:#cc0000;stroke-width:1.05833;stop-color:#000000;opacity:1.0;stroke-opacity:1.0;fill-opacity:1.0" sodipodi:type="star"/>
    <path sodipodi:type="star" style="vector-effect:none;fill:#ad7fa8;stroke:#cc0000;stroke-width:1.05833;stop-color:#000000;opacity:1.0;stroke-opacity:1.0;fill-opacity:1.0" id="d" sodipodi:sides="5" sodipodi:cx="12.909165" sodipodi:cy="13.574177" sodipodi:r1="9.7695704" sodipodi:r2="2.4398246" sodipodi:arg1="1.3941289" sodipodi:arg2="1.7773635" inkscape:flatsided="false" inkscape:rounded="0.0270277" inkscape:randomized="0" d="m 14.626166,23.191682 c -0.186471,0.08367 -2.033524,-7.140345 -2.217412,-7.229549 -0.204587,-0.09925 -7.9631565,2.385522 -8.1157976,2.216981 -0.1371979,-0.151489 6.1624786,-4.140484 6.1904926,-4.342938 0.03117,-0.225242 -4.7295175,-6.8362446 -4.6163942,-7.0334971 0.1016782,-0.1772956 5.8421452,4.5813861 6.0433462,4.5454671 0.223849,-0.03996 5.040154,-6.6105546 5.26271,-6.5639223 0.200038,0.041914 -2.551835,6.9719363 -2.455499,7.1521903 0.107179,0.200544 7.844504,2.750698 7.868927,2.976771 0.02195,0.2032 -7.419266,-0.272492 -7.560928,-0.12517 -0.157609,0.163905 -0.191984,8.310579 -0.399445,8.403667 z" inkscape:transform-center-x="-0.26217191" inkscape:transform-center-y="-0.52144261"/>
  <svg:g><path style="vector-effect:none;fill:#ffffff;stroke:#cc0000;stroke-width:1.05833;stop-color:#000000;opacity:1.0;stroke-opacity:1.0;fill-opacity:1.0" d="M 16.9717 20.6108 C 16.8389 20.6874 12.6947 17.082 12.5422 17.066 C 12.3897 17.0499 7.58634 19.7149 7.47239 19.6123 C 7.35843 19.5097 9.50675 14.4541 9.47487 14.3042 C 9.44299 14.1542 5.42411 10.4095 5.48648 10.2694 C 5.54885 10.1293 11.0209 10.6102 11.1537 10.5335 C 11.2864 10.4569 13.606 5.47752 13.7585 5.49355 C 13.911 5.50958 15.1445 10.8624 15.2585 10.965 C 15.3724 11.0676 20.8249 11.7349 20.8568 11.8849 C 20.8886 12.0349 16.179 14.8622 16.1166 15.0022 C 16.0543 15.1423 17.1045 20.5341 16.9717 20.6108 C 16.9717 20.6108 16.9717 20.6108 16.9717 20.6108"/><path style="vector-effect:none;fill:#fcf7d4;stroke:#cc0000;stroke-width:1.05833;stop-color:#000000;opacity:1.0;stroke-opacity:1.0;fill-opacity:1.0" d="M 17.0862 20.8533 C 16.9446 20.9331 12.6942 16.9587 12.5326 16.9412 C 12.3715 16.9238 7.39631 19.9058 7.2771 19.7962 C 7.15742 19.6861 9.62389 14.4156 9.59054 14.2565 C 9.55732 14.098 5.1839 10.2877 5.25128 10.1405 C 5.31896 9.99264 11.0937 10.7097 11.2348 10.6288 C 11.3752 10.5482 13.6475 5.21144 13.8084 5.23002 C 13.9699 5.24871 15.0724 10.9624 15.1929 11.0715 C 15.313 11.1803 21.0908 11.6922 21.1228 11.8509 C 21.1549 12.0103 16.0616 14.8245 15.995 14.9728 C 15.9287 15.1206 17.2273 20.7738 17.0862 20.8533 C 17.0862 20.8533 17.0862 20.8533 17.0862 20.8533"/><path style="vector-effect:none;fill:#f9f0aa;stroke:#cc0000;stroke-width:1.05833;stop-color:#000000;opacity:1.0;stroke-opacity:1.0;fill-opacity:1.0" d="M 17.2007 21.0958 C 17.0502 21.1788 12.6938 16.8354 12.5229 16.8165 C 12.3534 16.7977 7.20629 20.0966 7.08181 19.98 C 6.9564 19.8625 9.74102 14.3771 9.70621 14.2088 C 9.67166 14.0417 4.94368 10.166 5.01608 10.0116 C 5.08908 9.85597 11.1665 10.8092 11.3158 10.7241 C 11.464 10.6396 13.6891 4.94535 13.8583 4.9665 C 14.0288 4.98784 15.0003 11.0624 15.1274 11.1781 C 15.2535 11.293 21.3567 11.6495 21.3889 11.817 C 21.4213 11.9857 15.9442 14.7868 15.8734 14.9434 C 15.8032 15.0989 17.3501 21.0135 17.2007 21.0958 C 17.2007 21.0958 17.2007 21.0958 17.2007 21.0958"/><path style="vector-effect:none;fill:#f6e97f;stroke:#cc0000;stroke-width:1.05833;stop-color:#000000;opacity:1.0;stroke-opacity:1.0;fill-opacity:1.0" d="M 17.3153 21.3384 C 17.1559 21.4245 12.6934 16.7121 12.5133 16.6917 C 12.3353 16.6716 7.01627 20.2874 6.88653 20.1639 C 6.75539 20.0389 9.85815 14.3386 9.82188 14.1611 C 9.78599 13.9855 4.70346 10.0442 4.78088 9.88264 C 4.85919 9.7193 11.2393 10.9087 11.3969 10.8194 C 11.5528 10.731 13.7307 4.67927 13.9083 4.70297 C 14.0878 4.72698 14.9282 11.1624 15.0618 11.2847 C 15.1941 11.4056 21.6226 11.6068 21.6549 11.783 C 21.6876 11.9612 15.8268 14.7491 15.7518 14.914 C 15.6777 15.0772 17.4729 21.2532 17.3153 21.3384 C 17.3153 21.3384 17.3153 21.3384 17.3153 21.3384"/><path style="vector-effect:none;fill:#f3e255;stroke:#cc0000;stroke-width:1.05833;stop-color:#000000;opacity:1.0;stroke-opacity:1.0;fill-opacity:1.0" d="M 17.4298 21.5809 C 17.2615 21.6702 12.6929 16.5888 12.5037 16.567 C 12.3171 16.5455 6.82624 20.4783 6.69124 20.3477 C 6.55437 20.2153 9.97529 14.3001 9.93755 14.1134 C 9.90032 13.9293 4.46325 9.92246 4.54568 9.75372 C 4.62931 9.58264 11.3122 11.0082 11.478 10.9146 C 11.6416 10.8223 13.7722 4.41319 13.9582 4.43945 C 14.1467 4.46611 14.856 11.2624 14.9963 11.3913 C 15.1346 11.5183 21.8885 11.5641 21.921 11.7491 C 21.9539 11.9366 15.7094 14.7114 15.6302 14.8846 C 15.5521 15.0554 17.5956 21.4929 17.4298 21.5809 C 17.4298 21.5809 17.4298 21.5809 17.4298 21.5809"/><path style="vector-effect:none;fill:#f0db2a;stroke:#cc0000;stroke-width:1.05833;stop-color:#000000;opacity:1.0;stroke-opacity:1.0;fill-opacity:1.0" d="M 17.5443 21.8235 C 17.3672 21.9159 12.6925 16.4655 12.4941 16.4422 C 12.299 16.4194 6.63622 20.6691 6.49595 20.5316 C 6.35335 20.3917 10.0924 14.2616 10.0532 14.0657 C 10.0147 13.8731 4.22303 9.80071 4.31048 9.62481 C 4.39942 9.44597 11.385 11.1077 11.5591 11.0099 C 11.7304 10.9137 13.8138 4.14711 14.0081 4.17592 C 14.2057 4.20524 14.7839 11.3624 14.9308 11.4978 C 15.0752 11.631 22.1544 11.5214 22.187 11.7151 C 22.2202 11.9121 15.592 14.6737 15.5086 14.8552 C 15.4266 15.0337 17.7184 21.7326 17.5443 21.8235 C 17.5443 21.8235 17.5443 21.8235 17.5443 21.8235"/><path style="vector-effect:none;fill:#edd400;stroke:#cc0000;stroke-width:1.05833;stop-color:#000000;opacity:1.0;stroke-opacity:1.0;fill-opacity:1.0" d="M 17.6588 22.066 C 17.4728 22.1616 12.6921 16.3422 12.4845 16.3175 C 12.2809 16.2933 6.44619 20.86 6.30066 20.7154 C 6.15234 20.5681 10.2096 14.2231 10.1689 14.018 C 10.129 13.8169 3.98281 9.67895 4.07528 9.49589 C 4.16953 9.3093 11.4578 11.2072 11.6402 11.1052 C 11.8192 11.0051 13.8553 3.88102 14.058 3.9124 C 14.2646 3.94438 14.7118 11.4624 14.8652 11.6044 C 15.0157 11.7437 22.4203 11.4787 22.4531 11.6812 C 22.4865 11.8875 15.4746 14.636 15.387 14.8258 C 15.301 15.012 17.8412 21.9723 17.6588 22.066 C 17.6588 22.066 17.6588 22.066 17.6588 22.066"/></svg:g><svg:g><path style="vector-effect:none;fill:#edd400;stroke:#cc0000;stroke-width:1.05833;stop-color:#000000;opacity:1.0;stroke-opacity:1.0;fill-opacity:1.0" d="M 17.6588 22.066 C 17.4728 22.1616 12.6921 16.3422 12.4845 16.3175 C 12.2809 16.2933 6.44619 20.86 6.30066 20.7154 C 6.15234 20.5681 10.2096 14.2231 10.1689 14.018 C 10.129 13.8169 3.98281 9.67895 4.07528 9.49589 C 4.16953 9.3093 11.4578 11.2072 11.6402 11.1052 C 11.8192 11.0051 13.8553 3.88102 14.058 3.9124 C 14.2646 3.94438 14.7118 11.4624 14.8652 11.6044 C 15.0157 11.7437 22.4203 11.4787 22.4531 11.6812 C 22.4865 11.8875 15.4746 14.636 15.387 14.8258 C 15.301 15.012 17.8412 21.9723 17.6588 22.066 C 17.6588 22.066 17.6588 22.066 17.6588 22.066"/><path style="vector-effect:none;fill:#edd400;stroke:#cc0000;stroke-width:1.05833;stop-color:#000000;opacity:1.0;stroke-opacity:1.0;fill-opacity:1.0" d="M 17.6588 22.066 C 17.4728 22.1616 12.6921 16.3422 12.4845 16.3175 C 12.2809 16.2933 6.44619 20.86 6.30066 20.7154 C 6.15234 20.5681 10.2096 14.2231 10.1689 14.018 C 10.129 13.8169 3.98281 9.67895 4.07528 9.49589 C 4.16953 9.3093 11.4578 11.2072 11.6402 11.1052 C 11.8192 11.0051 13.8553 3.88102 14.058 3.9124 C 14.2646 3.94438 14.7118 11.4624 14.8652 11.6044 C 15.0157 11.7437 22.4203 11.4787 22.4531 11.6812 C 22.4865 11.8875 15.4746 14.636 15.387 14.8258 C 15.301 15.012 17.8412 21.9723 17.6588 22.066 C 17.6588 22.066 17.6588 22.066 17.6588 22.066"/><path style="vector-effect:none;fill:#e5c502;stroke:#cc0000;stroke-width:1.05833;stop-color:#000000;opacity:1.0;stroke-opacity:1.0;fill-opacity:1.0" d="M 18.106 21.8676 C 17.9276 21.9724 12.8809 16.4853 12.674 16.4704 C 12.4696 16.456 6.78064 21.2147 6.62753 21.0794 C 6.47272 20.9422 10.1318 14.4469 10.082 14.2455 C 10.0326 14.0467 3.74877 10.1067 3.8301 9.91924 C 3.91283 9.72958 11.2209 11.2024 11.3971 11.0929 C 11.5709 10.9844 13.3762 3.7906 13.5796 3.81004 C 13.7856 3.83011 14.6431 11.2357 14.8018 11.3693 C 14.9587 11.5011 22.3582 10.9951 22.4026 11.1945 C 22.4471 11.3966 15.669 14.5006 15.5909 14.6928 C 15.5141 14.8827 18.2819 21.7638 18.106 21.8676 C 18.106 21.8676 18.106 21.8676 18.106 21.8676"/><path style="vector-effect:none;fill:#deb705;stroke:#cc0000;stroke-width:1.05833;stop-color:#000000;opacity:1.0;stroke-opacity:1.0;fill-opacity:1.0" d="M 18.5532 21.6692 C 18.3823 21.7833 13.0697 16.6284 12.8634 16.6233 C 12.6584 16.6187 7.1151 21.5695 6.9544 21.4434 C 6.7931 21.3162 10.0541 14.6707 9.99517 14.4729 C 9.93611 14.2765 3.51472 10.5344 3.58492 10.3426 C 3.65613 10.1499 10.9841 11.1977 11.1539 11.0805 C 11.3225 10.9637 12.8971 3.70018 13.1012 3.70768 C 13.3065 3.71585 14.5745 11.0089 14.7384 11.1343 C 14.9016 11.2585 22.2962 10.5115 22.3521 10.7079 C 22.4078 10.9057 15.8635 14.3653 15.7949 14.5599 C 15.7272 14.7535 18.7227 21.5553 18.5532 21.6692 C 18.5532 21.6692 18.5532 21.6692 18.5532 21.6692"/><path style="vector-effect:none;fill:#d7a808;stroke:#cc0000;stroke-width:1.05833;stop-color:#000000;opacity:1.0;stroke-opacity:1.0;fill-opacity:1.0" d="M 19.0004 21.4709 C 18.837 21.5942 13.2586 16.7714 13.0529 16.7762 C 12.8471 16.7815 7.44955 21.9242 7.28126 21.8075 C 7.11348 21.6902 9.97635 14.8945 9.90831 14.7003 C 9.83968 14.5063 3.28067 10.9621 3.33973 10.7659 C 3.39943 10.5701 10.7472 11.1929 10.9108 11.0682 C 11.0741 10.943 12.418 3.60975 12.6228 3.60532 C 12.8275 3.60158 14.5058 10.7822 14.675 10.8992 C 14.8445 11.0159 22.2341 10.0279 22.3016 10.2213 C 22.3684 10.4148 16.0579 14.2299 15.9989 14.4269 C 15.9403 14.6243 19.1634 21.3469 19.0004 21.4708 C 19.0004 21.4708 19.0004 21.4709 19.0004 21.4709"/><path style="vector-effect:none;fill:#cf9a0b;stroke:#cc0000;stroke-width:1.05833;stop-color:#000000;opacity:1.0;stroke-opacity:1.0;fill-opacity:1.0" d="M 19.4476 21.2725 C 19.2917 21.4051 13.4474 16.9145 13.2424 16.9291 C 13.0359 16.9442 7.784 22.279 7.60813 22.1715 C 7.43386 22.0642 9.89862 15.1183 9.82144 14.9278 C 9.74324 14.7361 3.04662 11.3898 3.09455 11.1893 C 3.14273 10.9904 10.5103 11.1881 10.6676 11.0559 C 10.8258 10.9223 11.9389 3.51933 12.1444 3.50296 C 12.3485 3.48732 14.4371 10.5554 14.6116 10.6642 C 14.7875 10.7733 22.1721 9.54433 22.2512 9.73469 C 22.3291 9.92392 16.2524 14.0945 16.2028 14.294 C 16.1534 14.495 19.6042 21.1384 19.4476 21.2725 C 19.4476 21.2725 19.4476 21.2725 19.4476 21.2725"/><path style="vector-effect:none;fill:#c88b0e;stroke:#cc0000;stroke-width:1.05833;stop-color:#000000;opacity:1.0;stroke-opacity:1.0;fill-opacity:1.0" d="M 19.8948 21.0741 C 19.7464 21.2159 13.6362 17.0576 13.4318 17.082 C 13.2247 17.1069 8.11845 22.6338 7.935 22.5355 C 7.75424 22.4382 9.82088 15.3421 9.73458 15.1552 C 9.6468 14.9659 2.81258 11.8175 2.84937 11.6127 C 2.88603 11.4107 10.2735 11.1834 10.4245 11.0435 C 10.5774 10.9016 11.4598 3.42891 11.666 3.4006 C 11.8695 3.37305 14.3685 10.3287 14.5481 10.4291 C 14.7304 10.5307 22.11 9.06073 22.2007 9.24808 C 22.2897 9.43303 16.4468 13.9592 16.4068 14.1611 C 16.3665 14.3658 20.0449 20.93 19.8948 21.0741 C 19.8948 21.0741 19.8948 21.0741 19.8948 21.0741"/><path style="vector-effect:none;fill:#c17d11;stroke:#cc0000;stroke-width:1.05833;stop-color:#000000;opacity:1.0;stroke-opacity:1.0;fill-opacity:1.0" d="M 20.342 20.8757 C 20.2011 21.0268 13.825 17.2007 13.6213 17.2348 C 13.4134 17.2697 8.4529 22.9885 8.26186 22.8995 C 8.07462 22.8122 9.74315 15.5659 9.64772 15.3827 C 9.55037 15.1957 2.57853 12.2452 2.60418 12.036 C 2.62933 11.831 10.0366 11.1786 10.1814 11.0312 C 10.3291 10.8809 10.9808 3.33848 11.1876 3.29824 C 11.3904 3.25879 14.2998 10.1019 14.4847 10.1941 C 14.6734 10.2881 22.048 8.57714 22.1502 8.76147 C 22.2504 8.94214 16.6412 13.8238 16.6107 14.0281 C 16.5796 14.2366 20.4857 20.7215 20.342 20.8757 C 20.342 20.8757 20.342 20.8757 20.342 20.8757"/><path style="vector-effect:none;fill:#c17d11;stroke:#cc0000;stroke-width:1.05833;stop-color:#000000;opacity:1.0;stroke-opacity:1.0;fill-opacity:1.0" d="M 20.342 20.8757 C 20.2011 21.0268 13.825 17.2007 13.6213 17.2348 C 13.4134 17.2697 8.4529 22.9885 8.26186 22.8995 C 8.07462 22.8122 9.74315 15.5659 9.64772 15.3827 C 9.55037 15.1957 2.57853 12.2452 2.60418 12.036 C 2.62933 11.831 10.0366 11.1786 10.1814 11.0312 C 10.3291 10.8809 10.9808 3.33848 11.1876 3.29824 C 11.3904 3.25879 14.2998 10.1019 14.4847 10.1941 C 14.6734 10.2881 22.048 8.57714 22.1502 8.76147 C 22.2504 8.94214 16.6412 13.8238 16.6107 14.0281 C 16.5796 14.2366 20.4857 20.7215 20.342 20.8757 C 20.342 20.8757 20.342 20.8757 20.342 20.8757"/></svg:g><svg:g><path style="vector-effect:none;fill:#c17d11;stroke:#cc0000;stroke-width:1.05833;stop-color:#000000;opacity:1.0;stroke-opacity:1.0;fill-opacity:1.0" d="M 20.342 20.8757 C 20.2011 21.0268 13.825 17.2007 13.6213 17.2348 C 13.4134 17.2697 8.4529 22.9885 8.26186 22.8995 C 8.07462 22.8122 9.74315 15.5659 9.64772 15.3827 C 9.55037 15.1957 2.57853 12.2452 2.60418 12.036 C 2.62933 11.831 10.0366 11.1786 10.1814 11.0312 C 10.3291 10.8809 10.9808 3.33848 11.1876 3.29824 C 11.3904 3.25879 14.2998 10.1019 14.4847 10.1941 C 14.6734 10.2881 22.048 8.57714 22.1502 8.76147 C 22.2504 8.94214 16.6412 13.8238 16.6107 14.0281 C 16.5796 14.2366 20.4857 20.7215 20.342 20.8757 C 20.342 20.8757 20.342 20.8757 20.342 20.8757"/><path style="vector-effect:none;fill:#c17d11;stroke:#cc0000;stroke-width:1.05833;stop-color:#000000;opacity:1.0;stroke-opacity:1.0;fill-opacity:1.0" d="M 20.342 20.8757 C 20.2011 21.0268 13.825 17.2007 13.6213 17.2348 C 13.4134 17.2697 8.4529 22.9885 8.26186 22.8995 C 8.07462 22.8122 9.74315 15.5659 9.64772 15.3827 C 9.55037 15.1957 2.57853 12.2452 2.60418 12.036 C 2.62933 11.831 10.0366 11.1786 10.1814 11.0312 C 10.3291 10.8809 10.9808 3.33848 11.1876 3.29824 C 11.3904 3.25879 14.2998 10.1019 14.4847 10.1941 C 14.6734 10.2881 22.048 8.57714 22.1502 8.76147 C 22.2504 8.94214 16.6412 13.8238 16.6107 14.0281 C 16.5796 14.2366 20.4857 20.7215 20.342 20.8757 C 20.342 20.8757 20.342 20.8757 20.342 20.8757"/><path style="vector-effect:none;fill:#c17d11;stroke:#cc0000;stroke-width:1.05833;stop-color:#000000;opacity:1.0;stroke-opacity:1.0;fill-opacity:1.0" d="M 20.342 20.8757 C 20.2011 21.0268 13.825 17.2007 13.6213 17.2348 C 13.4134 17.2697 8.4529 22.9885 8.26186 22.8995 C 8.07462 22.8122 9.74315 15.5659 9.64772 15.3827 C 9.55037 15.1957 2.57853 12.2452 2.60418 12.036 C 2.62933 11.831 10.0366 11.1786 10.1814 11.0312 C 10.3291 10.8809 10.9808 3.33848 11.1876 3.29824 C 11.3904 3.25879 14.2998 10.1019 14.4847 10.1941 C 14.6734 10.2881 22.048 8.57714 22.1502 8.76147 C 22.2504 8.94214 16.6412 13.8238 16.6107 14.0281 C 16.5796 14.2366 20.4857 20.7215 20.342 20.8757 C 20.342 20.8757 20.342 20.8757 20.342 20.8757"/><path style="vector-effect:none;fill:#bd7d2a;stroke:#cc0000;stroke-width:1.05833;stop-color:#000000;opacity:1.0;stroke-opacity:1.0;fill-opacity:1.0" d="M 19.3893 21.2617 C 19.2409 21.4016 13.6196 17.0091 13.4192 17.0227 C 13.2119 17.0352 7.78501 22.215 7.60038 22.1127 C 7.42148 22.0148 9.86186 15.3113 9.78701 15.1249 C 9.71108 14.9316 3.10776 11.371 3.148 11.1638 C 3.1859 10.9634 10.3154 11.2128 10.4695 11.084 C 10.6299 10.9521 11.9757 3.57167 12.1852 3.5459 C 12.3875 3.52001 14.3534 10.3776 14.5235 10.4844 C 14.6986 10.5962 22.1337 9.59547 22.2229 9.78675 C 22.3101 9.97118 16.3956 13.9599 16.3465 14.1548 C 16.2943 14.3558 19.5437 21.1177 19.3893 21.2617 C 19.3893 21.2617 19.3893 21.2617 19.3893 21.2617"/><path style="vector-effect:none;fill:#ba7d43;stroke:#cc0000;stroke-width:1.05833;stop-color:#000000;opacity:1.0;stroke-opacity:1.0;fill-opacity:1.0" d="M 18.4367 21.6477 C 18.2806 21.7763 13.4142 16.8176 13.2171 16.8106 C 13.0103 16.8007 7.11713 21.4416 6.93889 21.326 C 6.76833 21.2173 9.98058 15.0568 9.9263 14.8672 C 9.87178 14.6675 3.637 10.4968 3.69181 10.2916 C 3.74246 10.0958 10.5941 11.2471 10.7577 11.1369 C 10.9308 11.0233 12.9707 3.80485 13.1828 3.79357 C 13.3847 3.78124 14.407 10.6533 14.5624 10.7748 C 14.7238 10.9044 22.2194 10.6138 22.2956 10.812 C 22.3697 11.0002 16.1499 14.0961 16.0824 14.2814 C 16.0091 14.475 18.6017 21.5139 18.4367 21.6477 C 18.4367 21.6477 18.4367 21.6477 18.4367 21.6477"/><path style="vector-effect:none;fill:#b77e5c;stroke:#cc0000;stroke-width:1.05833;stop-color:#000000;opacity:1.0;stroke-opacity:1.0;fill-opacity:1.0" d="M 17.4841 22.0337 C 17.3204 22.1511 13.2088 16.626 13.015 16.5985 C 12.8088 16.5663 6.44925 20.6681 6.27741 20.5393 C 6.11519 20.4199 10.0993 14.8023 10.0656 14.6094 C 10.0325 14.4033 4.16623 9.62257 4.23562 9.41934 C 4.29903 9.22817 10.8729 11.2813 11.0459 11.1897 C 11.2317 11.0945 13.9657 4.03804 14.1804 4.04123 C 14.3818 4.04246 14.4606 10.929 14.6012 11.0652 C 14.7491 11.2125 22.305 11.6321 22.3684 11.8373 C 22.4294 12.0293 15.9042 14.2322 15.8182 14.4081 C 15.7238 14.5942 17.6597 21.9101 17.4841 22.0337 C 17.4841 22.0337 17.4841 22.0337 17.4841 22.0337"/><path style="vector-effect:none;fill:#b37e75;stroke:#cc0000;stroke-width:1.05833;stop-color:#000000;opacity:1.0;stroke-opacity:1.0;fill-opacity:1.0" d="M 16.5314 22.4197 C 16.3602 22.5258 13.0034 16.4345 12.8129 16.3864 C 12.6073 16.3318 5.78136 19.8946 5.61593 19.7526 C 5.46205 19.6225 10.218 14.5477 10.2049 14.3517 C 10.1932 14.1392 4.69546 8.74836 4.77943 8.54712 C 4.8556 8.36057 11.1517 11.3156 11.3341 11.2425 C 11.5325 11.1657 14.9606 4.27122 15.178 4.28889 C 15.3789 4.30369 14.5141 11.2047 14.64 11.3556 C 14.7743 11.5207 22.3907 12.6505 22.4411 12.8626 C 22.4891 13.0583 15.6586 14.3684 15.554 14.5347 C 15.4385 14.7135 16.7176 22.3062 16.5314 22.4197 C 16.5314 22.4197 16.5314 22.4197 16.5314 22.4197"/><path style="vector-effect:none;fill:#b07e8e;stroke:#cc0000;stroke-width:1.05833;stop-color:#000000;opacity:1.0;stroke-opacity:1.0;fill-opacity:1.0" d="M 15.5788 22.8057 C 15.3999 22.9006 12.798 16.2429 12.6108 16.1743 C 12.4057 16.0973 5.11348 19.1211 4.95444 18.9658 C 4.8089 18.8251 10.3367 14.2932 10.3442 14.0939 C 10.3539 13.8751 5.2247 7.87414 5.32324 7.6749 C 5.41217 7.49298 11.4304 11.3498 11.6222 11.2953 C 11.8334 11.237 15.9556 4.50441 16.1755 4.53656 C 16.376 4.56491 14.5677 11.4805 14.6788 11.646 C 14.7996 11.8288 22.4764 13.6688 22.5138 13.8879 C 22.5488 14.0873 15.4129 14.5045 15.2898 14.6614 C 15.1533 14.8327 15.7756 22.7024 15.5788 22.8057 C 15.5788 22.8057 15.5788 22.8057 15.5788 22.8057"/><path style="vector-effect:none;fill:#ad7fa8;stroke:#cc0000;stroke-width:1.05833;stop-color:#000000;opacity:1.0;stroke-opacity:1.0;fill-opacity:1.0" d="M 14.6262 23.1917 C 14.4397 23.2754 12.5926 16.0513 12.4088 15.9621 C 12.2042 15.8629 4.4456 18.3477 4.29296 18.1791 C 4.15576 18.0276 10.4554 14.0386 10.4834 13.8362 C 10.5146 13.6109 5.75393 6.99993 5.86705 6.80268 C 5.96873 6.62538 11.7092 11.3841 11.9104 11.3481 C 12.1342 11.3082 16.9506 4.73759 17.1731 4.78422 C 17.3731 4.82614 14.6213 11.7562 14.7176 11.9364 C 14.8248 12.137 22.5621 14.6871 22.5865 14.9132 C 22.6085 15.1164 15.1673 14.6407 15.0256 14.788 C 14.868 14.9519 14.8336 23.0986 14.6262 23.1917 C 14.6262 23.1917 14.6262 23.1917 14.6262 23.1917"/><path style="vector-effect:none;fill:#ad7fa8;stroke:#cc0000;stroke-width:1.05833;stop-color:#000000;opacity:1.0;stroke-opacity:1.0;fill-opacity:1.0" d="M 14.6262 23.1917 C 14.4397 23.2754 12.5926 16.0513 12.4088 15.9621 C 12.2042 15.8629 4.4456 18.3477 4.29296 18.1791 C 4.15576 18.0276 10.4554 14.0386 10.4834 13.8362 C 10.5146 13.6109 5.75393 6.99993 5.86705 6.80268 C 5.96873 6.62538 11.7092 11.3841 11.9104 11.3481 C 12.1342 11.3082 16.9506 4.73759 17.1731 4.78422 C 17.3731 4.82614 14.6213 11.7562 14.7176 11.9364 C 14.8248 12.137 22.5621 14.6871 22.5865 14.9132 C 22.6085 15.1164 15.1673 14.6407 15.0256 14.788 C 14.868 14.9519 14.8336 23.0986 14.6262 23.1917 C 14.6262 23.1917 14.6262 23.1917 14.6262 23.1917"/><path style="vector-effect:none;fill:#ad7fa8;stroke:#cc0000;stroke-width:1.05833;stop-color:#000000;opacity:1.0;stroke-opacity:1.0;fill-opacity:1.0" d="M 14.6262 23.1917 C 14.4397 23.2754 12.5926 16.0513 12.4088 15.9621 C 12.2042 15.8629 4.4456 18.3477 4.29296 18.1791 C 4.15576 18.0276 10.4554 14.0386 10.4834 13.8362 C 10.5146 13.6109 5.75393 6.99993 5.86705 6.80268 C 5.96873 6.62538 11.7092 11.3841 11.9104 11.3481 C 12.1342 11.3082 16.9506 4.73759 17.1731 4.78422 C 17.3731 4.82614 14.6213 11.7562 14.7176 11.9364 C 14.8248 12.137 22.5621 14.6871 22.5865 14.9132 C 22.6085 15.1164 15.1673 14.6407 15.0256 14.788 C 14.868 14.9519 14.8336 23.0986 14.6262 23.1917 C 14.6262 23.1917 14.6262 23.1917 14.6262 23.1917"/></svg:g></g>
</svg>